[gd_scene load_steps=9 format=2]

[ext_resource path="res://src/player/Player.tscn" type="PackedScene" id=1]
[ext_resource path="res://src/enemies/Enemy.tscn" type="PackedScene" id=2]
[ext_resource path="res://src/map/Map.gd" type="Script" id=3]
[ext_resource path="res://src/traps/Trap3.tscn" type="PackedScene" id=4]
[ext_resource path="res://src/projectiles/Projectile.tscn" type="PackedScene" id=5]
[ext_resource path="res://src/traps/Trap1.tscn" type="PackedScene" id=6]
[ext_resource path="res://src/traps/Trap2.tscn" type="PackedScene" id=7]
[ext_resource path="res://assets/icon.png" type="Texture" id=8]

[node name="Map" type="Node2D"]
script = ExtResource( 3 )
EnemyScene = ExtResource( 2 )
ProjectileScene = ExtResource( 5 )

[node name="Sprite" type="Sprite" parent="."]
visible = false
position = Vector2( 0, 2000 )
scale = Vector2( 30, 30 )
texture = ExtResource( 8 )

[node name="Player" parent="." instance=ExtResource( 1 )]
position = Vector2( 527, 325 )

[node name="enemies" type="Node" parent="."]

[node name="projectiles" type="Node" parent="."]

[node name="traps" type="Node" parent="."]

[node name="SpawnTimer" type="Timer" parent="."]

[node name="WeaponTimer" type="Timer" parent="."]
one_shot = true

[node name="Trap1" parent="." instance=ExtResource( 6 )]
position = Vector2( 579, 1785 )
scale = Vector2( 0.3, 0.3 )

[node name="Trap4" parent="." instance=ExtResource( 7 )]
position = Vector2( -3.00001, 2263 )
scale = Vector2( 0.2, 0.2 )

[node name="Trap3" parent="." instance=ExtResource( 4 )]
position = Vector2( -274, 1645 )
scale = Vector2( 0.15, 0.15 )

[connection signal="timeout" from="SpawnTimer" to="." method="_on_SpawnTimer_timeout"]
