[gd_scene load_steps=3 format=2]

[ext_resource path="res://src/traps/Trap.tscn" type="PackedScene" id=1]
[ext_resource path="res://assets/trap_1.png" type="Texture" id=2]

[node name="Trap1" instance=ExtResource( 1 )]

[node name="CollisionShape2D" parent="." index="0"]
polygon = PoolVector2Array( -141, -56.9995, -139, -78.9995, -130, -89.9995, -119, -108, -111, -123, -105.001, -143, -105.001, -168, -109.001, -189, -115.001, -208, -123.001, -227, -129.001, -259, -131.001, -300, -129.001, -321, -118.001, -348, -102.001, -370, -83.0014, -390, -78.0015, -420, -71.0017, -475, -57.0019, -516, -49.0019, -539, -43.0021, -573, -34.0022, -617, -30.0023, -649, -31.0025, -681, -30.0026, -710, -24.0026, -726, -10.0027, -734, 6.99736, -730, 19.9974, -706, 36.9975, -699, 55.9975, -682, 60.9976, -671, 69.9976, -671, 88.9976, -654, 99.9977, -639, 104.998, -616, 111.998, -593, 133.998, -574, 146.998, -557.001, 163.998, -534.001, 178.998, -510.001, 184.998, -481.001, 186.998, -455.001, 183.998, -423.001, 175.999, -400.001, 167.999, -378.001, 161.999, -357.001, 164.999, -336.001, 179.999, -286.001, 190.999, -260.001, 194.999, -235.001, 202.999, -211.001, 199.999, -196.001, 188.999, -178.001, 183.999, -167.001, 185.999, -141.001, 190, -130.001, 173, -106.001, 162, -76.0006, 154, -49.0006, 149, -21.0005, 155, 19.9994, 169, 52.9994, 182, 70.9993, 183, 98.9993, 188.001, 139.999, 182.001, 179.999, 172.001, 206.999, 163.001, 228.999, 153.001, 254.999, 149.001, 273.999, 154.001, 304.999, 167.001, 328.999, 168.001, 343.999, 161.001, 358.999, 155.001, 371.999, 152.001, 398.999, 154.002, 421.999, 158.002, 441.999, 159.002, 460.999, 159.002, 479.999, 150.002, 509.999, 142.002, 547, 126.002, 578, 110.002, 606, 92.0022, 618, 74.0022, 620, 51.0023, 636, 37.0024, 651, 27.0024, 675, 14.0025, 697, -4.99746, 701, -26.9975, 686, -32.9976, 669, -37.9977, 633, -43.9977, 625, -32.9979, 590, -28.998, 561, -44.9981, 537, -41.9981, 515, -42.9982, 492, -53.9983, 470, -69.9983, 459, -101.998, 440, -115.999, 401, -124.999, 374, -131.999, 341, -140.999, 305.001, -141.999, 282.001, -141.999, 251.001, -135.999, 226, -121.999, 203, -111.999, 183, -112.999, 155, -126, 130, -134, 107, -143, 74.0005, -148, 51.0005, -152, 27.0005, -151, 9.00055, -141, -12.9995, -133, -27.9995, -135, -45.9995 )

[node name="Sprite" parent="." index="1"]
position = Vector2( 1, -5 )
scale = Vector2( 0.505208, 0.505208 )
texture = ExtResource( 2 )
