[gd_scene load_steps=7 format=2]

[ext_resource path="res://assets/projectile_2.png" type="Texture" id=1]
[ext_resource path="res://assets/projectile_1.png" type="Texture" id=2]
[ext_resource path="res://assets/projectile_3.png" type="Texture" id=3]
[ext_resource path="res://src/projectiles/Projectile.gd" type="Script" id=4]

[sub_resource type="SpriteFrames" id=1]
animations = [ {
"frames": [ ExtResource( 2 ), ExtResource( 1 ), ExtResource( 3 ) ],
"loop": true,
"name": "flying",
"speed": 15.0
} ]

[sub_resource type="CapsuleShape2D" id=2]
radius = 3.99997
height = 14.0

[node name="Projectile" type="Area2D"]
script = ExtResource( 4 )

[node name="AnimatedSprite" type="AnimatedSprite" parent="."]
position = Vector2( -0.0137002, -0.00620252 )
rotation = 3.14159
scale = Vector2( 0.0667731, 0.0667731 )
frames = SubResource( 1 )
animation = "flying"

[node name="CollisionShape2D" type="CollisionShape2D" parent="."]
rotation = 1.5708
shape = SubResource( 2 )

[connection signal="body_entered" from="." to="." method="_on_Projectile_body_entered"]
